Library\Bee\artifacts\movedfrom\Unity.VisualScripting.Core.Editor.ref.dll_17134060296949054973.movedfrom
Library\Bee\artifacts\movedfrom\Unity.VisualScripting.Core.ref.dll_15518829177300997364.movedfrom
Library\Bee\artifacts\movedfrom\Unity.VisualScripting.Flow.Editor.ref.dll_7708282115428993342.movedfrom
Library\Bee\artifacts\movedfrom\Unity.VisualScripting.Flow.ref.dll_2192924542065166755.movedfrom
Library\Bee\artifacts\movedfrom\Unity.VisualScripting.State.ref.dll_15643080368937755746.movedfrom
Library\Bee\artifacts\movedfrom\UnityEditor.TestRunner.ref.dll_1819107689489022899.movedfrom
Library\Bee\artifacts\movedfrom\UnityEditor.UI.ref.dll_5519394401220875509.movedfrom
Library\Bee\artifacts\movedfrom\UnityEngine.TestRunner.ref.dll_16527383234446630302.movedfrom
Library\Bee\artifacts\movedfrom\UnityEngine.UI.ref.dll_648142665722821984.movedfrom
Library\Bee\artifacts\movedfrom\UnityEditor.Graphs.dll_14698771553618553009.movedfrom
Library\Bee\artifacts\movedfrom\UnityEditor.CoreModule.dll_11542529668309753215.movedfrom
Library\Bee\artifacts\movedfrom\UnityEditor.DeviceSimulatorModule.dll_2198171352202281330.movedfrom
Library\Bee\artifacts\movedfrom\UnityEditor.dll_16885635417153532902.movedfrom
Library\Bee\artifacts\movedfrom\UnityEditor.GraphViewModule.dll_15228073413987746583.movedfrom
Library\Bee\artifacts\movedfrom\UnityEditor.PackageManagerUIModule.dll_1521749104458813979.movedfrom
Library\Bee\artifacts\movedfrom\UnityEditor.QuickSearchModule.dll_18205924463327544217.movedfrom
Library\Bee\artifacts\movedfrom\UnityEditor.SceneTemplateModule.dll_3174933107210264378.movedfrom
Library\Bee\artifacts\movedfrom\UnityEditor.UIBuilderModule.dll_2872638173992172619.movedfrom
Library\Bee\artifacts\movedfrom\UnityEditor.UIElementsModule.dll_17505185239820173915.movedfrom
Library\Bee\artifacts\movedfrom\UnityEditor.UIElementsSamplesModule.dll_606351154067250626.movedfrom
Library\Bee\artifacts\movedfrom\UnityEditor.UIServiceModule.dll_6975999500997299301.movedfrom
Library\Bee\artifacts\movedfrom\UnityEditor.UnityConnectModule.dll_6662660684073864117.movedfrom
Library\Bee\artifacts\movedfrom\UnityEngine.AccessibilityModule.dll_6824374476555896535.movedfrom
Library\Bee\artifacts\movedfrom\UnityEngine.AIModule.dll_7914572797186617843.movedfrom
Library\Bee\artifacts\movedfrom\UnityEngine.AndroidJNIModule.dll_8158220207375249713.movedfrom
Library\Bee\artifacts\movedfrom\UnityEngine.AnimationModule.dll_11662766398897919933.movedfrom
Library\Bee\artifacts\movedfrom\UnityEngine.ARModule.dll_2830788386076528828.movedfrom
Library\Bee\artifacts\movedfrom\UnityEngine.AssetBundleModule.dll_4652678872052152459.movedfrom
Library\Bee\artifacts\movedfrom\UnityEngine.AudioModule.dll_1537610005588590959.movedfrom
Library\Bee\artifacts\movedfrom\UnityEngine.ClothModule.dll_8952889024525017171.movedfrom
Library\Bee\artifacts\movedfrom\UnityEngine.ClusterInputModule.dll_15858013959290805883.movedfrom
Library\Bee\artifacts\movedfrom\UnityEngine.ClusterRendererModule.dll_2607086810847776502.movedfrom
Library\Bee\artifacts\movedfrom\UnityEngine.CoreModule.dll_14073785010851678378.movedfrom
Library\Bee\artifacts\movedfrom\UnityEngine.CrashReportingModule.dll_6195425224221371010.movedfrom
Library\Bee\artifacts\movedfrom\UnityEngine.DirectorModule.dll_3188667731909947719.movedfrom
Library\Bee\artifacts\movedfrom\UnityEngine.dll_2088010836632436939.movedfrom
Library\Bee\artifacts\movedfrom\UnityEngine.DSPGraphModule.dll_3571862280731558504.movedfrom
Library\Bee\artifacts\movedfrom\UnityEngine.GameCenterModule.dll_11206394209030693410.movedfrom
Library\Bee\artifacts\movedfrom\UnityEngine.GIModule.dll_437551838640085517.movedfrom
Library\Bee\artifacts\movedfrom\UnityEngine.GridModule.dll_11583606601316867745.movedfrom
Library\Bee\artifacts\movedfrom\UnityEngine.HotReloadModule.dll_2531927086765912895.movedfrom
Library\Bee\artifacts\movedfrom\UnityEngine.ImageConversionModule.dll_10385363776832849642.movedfrom
Library\Bee\artifacts\movedfrom\UnityEngine.IMGUIModule.dll_5599750658260686160.movedfrom
Library\Bee\artifacts\movedfrom\UnityEngine.InputLegacyModule.dll_15120481599156907644.movedfrom
Library\Bee\artifacts\movedfrom\UnityEngine.InputModule.dll_8920636730443949587.movedfrom
Library\Bee\artifacts\movedfrom\UnityEngine.JSONSerializeModule.dll_13748528319439480673.movedfrom
Library\Bee\artifacts\movedfrom\UnityEngine.LocalizationModule.dll_1900455270240407924.movedfrom
Library\Bee\artifacts\movedfrom\UnityEngine.ParticleSystemModule.dll_12181352671563167248.movedfrom
Library\Bee\artifacts\movedfrom\UnityEngine.PerformanceReportingModule.dll_6487566813342123881.movedfrom
Library\Bee\artifacts\movedfrom\UnityEngine.Physics2DModule.dll_17185850733709823826.movedfrom
Library\Bee\artifacts\movedfrom\UnityEngine.PhysicsModule.dll_7506859351850057760.movedfrom
Library\Bee\artifacts\movedfrom\UnityEngine.ProfilerModule.dll_6811313588839888980.movedfrom
Library\Bee\artifacts\movedfrom\UnityEngine.RuntimeInitializeOnLoadManagerInitializerModule.dll_3778640440854586395.movedfrom
Library\Bee\artifacts\movedfrom\UnityEngine.ScreenCaptureModule.dll_15615179677092729795.movedfrom
Library\Bee\artifacts\movedfrom\UnityEngine.SharedInternalsModule.dll_1455076277282325050.movedfrom
Library\Bee\artifacts\movedfrom\UnityEngine.SpriteMaskModule.dll_9561580408495437724.movedfrom
Library\Bee\artifacts\movedfrom\UnityEngine.SpriteShapeModule.dll_6481471663358898325.movedfrom
Library\Bee\artifacts\movedfrom\UnityEngine.StreamingModule.dll_6228308477756034811.movedfrom
Library\Bee\artifacts\movedfrom\UnityEngine.SubstanceModule.dll_3682389618437049609.movedfrom
Library\Bee\artifacts\movedfrom\UnityEngine.SubsystemsModule.dll_17248493117745422255.movedfrom
Library\Bee\artifacts\movedfrom\UnityEngine.TerrainModule.dll_9400195761168566542.movedfrom
Library\Bee\artifacts\movedfrom\UnityEngine.TerrainPhysicsModule.dll_12215878243337253021.movedfrom
Library\Bee\artifacts\movedfrom\UnityEngine.TextCoreModule.dll_14194009375488385367.movedfrom
Library\Bee\artifacts\movedfrom\UnityEngine.TextRenderingModule.dll_140655272820102072.movedfrom
Library\Bee\artifacts\movedfrom\UnityEngine.TilemapModule.dll_2409597043729410583.movedfrom
Library\Bee\artifacts\movedfrom\UnityEngine.TLSModule.dll_2185315717392681204.movedfrom
Library\Bee\artifacts\movedfrom\UnityEngine.UIElementsModule.dll_17554282041810918310.movedfrom
Library\Bee\artifacts\movedfrom\UnityEngine.UIElementsNativeModule.dll_6888268089394315837.movedfrom
Library\Bee\artifacts\movedfrom\UnityEngine.UIModule.dll_7586828366977578911.movedfrom
Library\Bee\artifacts\movedfrom\UnityEngine.UmbraModule.dll_10388498394725772514.movedfrom
Library\Bee\artifacts\movedfrom\UnityEngine.UNETModule.dll_6194253580159352355.movedfrom
Library\Bee\artifacts\movedfrom\UnityEngine.UnityAnalyticsModule.dll_14460016619514923020.movedfrom
Library\Bee\artifacts\movedfrom\UnityEngine.UnityConnectModule.dll_5320451720008371296.movedfrom
Library\Bee\artifacts\movedfrom\UnityEngine.UnityCurlModule.dll_15345762227885967786.movedfrom
Library\Bee\artifacts\movedfrom\UnityEngine.UnityTestProtocolModule.dll_14135927437137998616.movedfrom
Library\Bee\artifacts\movedfrom\UnityEngine.UnityWebRequestAssetBundleModule.dll_11303599920065663965.movedfrom
Library\Bee\artifacts\movedfrom\UnityEngine.UnityWebRequestAudioModule.dll_15133444413189624321.movedfrom
Library\Bee\artifacts\movedfrom\UnityEngine.UnityWebRequestModule.dll_11655105823684256105.movedfrom
Library\Bee\artifacts\movedfrom\UnityEngine.UnityWebRequestTextureModule.dll_1495997116045844982.movedfrom
Library\Bee\artifacts\movedfrom\UnityEngine.UnityWebRequestWWWModule.dll_32385876973996146.movedfrom
Library\Bee\artifacts\movedfrom\UnityEngine.VehiclesModule.dll_11818401893810962658.movedfrom
Library\Bee\artifacts\movedfrom\UnityEngine.VFXModule.dll_11471342800888541793.movedfrom
Library\Bee\artifacts\movedfrom\UnityEngine.VideoModule.dll_4206419853848075540.movedfrom
Library\Bee\artifacts\movedfrom\UnityEngine.VirtualTexturingModule.dll_9521946359673930440.movedfrom
Library\Bee\artifacts\movedfrom\UnityEngine.VRModule.dll_13554703178582768919.movedfrom
Library\Bee\artifacts\movedfrom\UnityEngine.WindModule.dll_4152033049082496787.movedfrom
Library\Bee\artifacts\movedfrom\UnityEngine.XRModule.dll_17211277550303775349.movedfrom
Library\Bee\artifacts\movedfrom\UnityEditor.UWP.Extensions.dll_11214131841833006364.movedfrom
Library\Bee\artifacts\movedfrom\UnityEditor.WindowsStandalone.Extensions.dll_5979235879037809425.movedfrom
Library\Bee\artifacts\movedfrom\Unity.Plastic.Antlr3.Runtime.dll_1816768363931722310.movedfrom
Library\Bee\artifacts\movedfrom\Unity.VisualScripting.IonicZip.dll_6256130586326723129.movedfrom
Library\Bee\artifacts\movedfrom\Unity.VisualScripting.YamlDotNet.dll_15882632698569096979.movedfrom
Library\Bee\artifacts\movedfrom\Unity.VisualScripting.Antlr3.Runtime.dll_10220806290662231858.movedfrom