%YAML 1.1
%TAG !u! tag:unity3d.com,2011:
--- !u!1001 &2873453809631105599
PrefabInstance:
  m_ObjectHideFlags: 0
  serializedVersion: 2
  m_Modification:
    m_TransformParent: {fileID: 0}
    m_Modifications:
    - target: {fileID: 858098493095993473, guid: 8f7fc129c18e97c42b7556a7fea39acd, type: 3}
      propertyPath: m_Materials.Array.data[0]
      value: 
      objectReference: {fileID: 2100000, guid: 2f37bcc26a1fe0a4390064c6e371713c, type: 2}
    - target: {fileID: 1218338564914757972, guid: 8f7fc129c18e97c42b7556a7fea39acd, type: 3}
      propertyPath: m_Name
      value: RedCard
      objectReference: {fileID: 0}
    - target: {fileID: 1218338564914757972, guid: 8f7fc129c18e97c42b7556a7fea39acd, type: 3}
      propertyPath: m_IsActive
      value: 0
      objectReference: {fileID: 0}
    - target: {fileID: 1991638684580387822, guid: 8f7fc129c18e97c42b7556a7fea39acd, type: 3}
      propertyPath: m_RootOrder
      value: 0
      objectReference: {fileID: 0}
    - target: {fileID: 1991638684580387822, guid: 8f7fc129c18e97c42b7556a7fea39acd, type: 3}
      propertyPath: m_LocalPosition.x
      value: 7.457957
      objectReference: {fileID: 0}
    - target: {fileID: 1991638684580387822, guid: 8f7fc129c18e97c42b7556a7fea39acd, type: 3}
      propertyPath: m_LocalPosition.y
      value: 0
      objectReference: {fileID: 0}
    - target: {fileID: 1991638684580387822, guid: 8f7fc129c18e97c42b7556a7fea39acd, type: 3}
      propertyPath: m_LocalPosition.z
      value: -31.924175
      objectReference: {fileID: 0}
    - target: {fileID: 1991638684580387822, guid: 8f7fc129c18e97c42b7556a7fea39acd, type: 3}
      propertyPath: m_LocalRotation.w
      value: 1
      objectReference: {fileID: 0}
    - target: {fileID: 1991638684580387822, guid: 8f7fc129c18e97c42b7556a7fea39acd, type: 3}
      propertyPath: m_LocalRotation.x
      value: 0
      objectReference: {fileID: 0}
    - target: {fileID: 1991638684580387822, guid: 8f7fc129c18e97c42b7556a7fea39acd, type: 3}
      propertyPath: m_LocalRotation.y
      value: -0
      objectReference: {fileID: 0}
    - target: {fileID: 1991638684580387822, guid: 8f7fc129c18e97c42b7556a7fea39acd, type: 3}
      propertyPath: m_LocalRotation.z
      value: -0
      objectReference: {fileID: 0}
    - target: {fileID: 1991638684580387822, guid: 8f7fc129c18e97c42b7556a7fea39acd, type: 3}
      propertyPath: m_LocalEulerAnglesHint.x
      value: 0
      objectReference: {fileID: 0}
    - target: {fileID: 1991638684580387822, guid: 8f7fc129c18e97c42b7556a7fea39acd, type: 3}
      propertyPath: m_LocalEulerAnglesHint.y
      value: 0
      objectReference: {fileID: 0}
    - target: {fileID: 1991638684580387822, guid: 8f7fc129c18e97c42b7556a7fea39acd, type: 3}
      propertyPath: m_LocalEulerAnglesHint.z
      value: 0
      objectReference: {fileID: 0}
    m_RemovedComponents: []
  m_SourcePrefab: {fileID: 100100000, guid: 8f7fc129c18e97c42b7556a7fea39acd, type: 3}
